{
  "formatVersion": 1,
  "database": {
    "version": 1,
    "identityHash": "c66d93f6a1f6207e14cd9e8b25ddfdbf",
    "entities": [
      {
        "tableName": "CaseEntity",
        "createSql": "CREATE TABLE IF NOT EXISTS `${TABLE_NAME}` (`gameId` INTEGER NOT NULL, `x` INTEGER NOT NULL, `y` INTEGER NOT NULL, `terrain` TEXT, PRIMARY KEY(`gameId`, `x`, `y`))",
        "fields": [
          {
            "fieldPath": "gameId",
            "columnName": "gameId",
            "affinity": "INTEGER",
            "notNull": true
          },
          {
            "fieldPath": "x",
            "columnName": "x",
            "affinity": "INTEGER",
            "notNull": true
          },
          {
            "fieldPath": "y",
            "columnName": "y",
            "affinity": "INTEGER",
            "notNull": true
          },
          {
            "fieldPath": "terrain",
            "columnName": "terrain",
            "affinity": "TEXT",
            "notNull": false
          }
        ],
        "primaryKey": {
          "columnNames": [
            "gameId",
            "x",
            "y"
          ],
          "autoGenerate": false
        },
        "indices": [],
        "foreignKeys": []
      },
      {
        "tableName": "GameEntity",
        "createSql": "CREATE TABLE IF NOT EXISTS `${TABLE_NAME}` (`id` INTEGER PRIMARY KEY AUTOINCREMENT NOT NULL, `onlineId` INTEGER NOT NULL DEFAULT -1, `gameName` TEXT, `turnPlayerId` INTEGER NOT NULL, `mapHeight` INTEGER NOT NULL, `numberOfPlayers` INTEGER NOT NULL, `mapWidth` INTEGER NOT NULL, `gameRules` TEXT, `firstTurn` INTEGER NOT NULL, `isValid` INTEGER NOT NULL, `dateSaved` INTEGER, `creatorId` TEXT)",
        "fields": [
          {
            "fieldPath": "id",
            "columnName": "id",
            "affinity": "INTEGER",
            "notNull": true
          },
          {
            "fieldPath": "onlineId",
            "columnName": "onlineId",
            "affinity": "INTEGER",
            "notNull": true,
            "defaultValue": "-1"
          },
          {
            "fieldPath": "gameName",
            "columnName": "gameName",
            "affinity": "TEXT",
            "notNull": false
          },
          {
            "fieldPath": "turnPlayerId",
            "columnName": "turnPlayerId",
            "affinity": "INTEGER",
            "notNull": true
          },
          {
            "fieldPath": "mapHeight",
            "columnName": "mapHeight",
            "affinity": "INTEGER",
            "notNull": true
          },
          {
            "fieldPath": "numberOfPlayers",
            "columnName": "numberOfPlayers",
            "affinity": "INTEGER",
            "notNull": true
          },
          {
            "fieldPath": "mapWidth",
            "columnName": "mapWidth",
            "affinity": "INTEGER",
            "notNull": true
          },
          {
            "fieldPath": "gameRules",
            "columnName": "gameRules",
            "affinity": "TEXT",
            "notNull": false
          },
          {
            "fieldPath": "firstTurn",
            "columnName": "firstTurn",
            "affinity": "INTEGER",
            "notNull": true
          },
          {
            "fieldPath": "isValid",
            "columnName": "isValid",
            "affinity": "INTEGER",
            "notNull": true
          },
          {
            "fieldPath": "dateSaved",
            "columnName": "dateSaved",
            "affinity": "INTEGER",
            "notNull": false
          },
          {
            "fieldPath": "creatorId",
            "columnName": "creatorId",
            "affinity": "TEXT",
            "notNull": false
          }
        ],
        "primaryKey": {
          "columnNames": [
            "id"
          ],
          "autoGenerate": true
        },
        "indices": [],
        "foreignKeys": []
      },
      {
        "tableName": "PlayerEntity",
        "createSql": "CREATE TABLE IF NOT EXISTS `${TABLE_NAME}` (`gameId` INTEGER NOT NULL, `id` INTEGER NOT NULL, `playerAccountId` TEXT DEFAULT '-1', `name` TEXT, `race` TEXT, `objective` TEXT, `eliminated` INTEGER NOT NULL DEFAULT false, PRIMARY KEY(`id`, `gameId`))",
        "fields": [
          {
            "fieldPath": "gameId",
            "columnName": "gameId",
            "affinity": "INTEGER",
            "notNull": true
          },
          {
            "fieldPath": "id",
            "columnName": "id",
            "affinity": "INTEGER",
            "notNull": true
          },
          {
            "fieldPath": "playerAccountId",
            "columnName": "playerAccountId",
            "affinity": "TEXT",
            "notNull": false,
            "defaultValue": "'-1'"
          },
          {
            "fieldPath": "name",
            "columnName": "name",
            "affinity": "TEXT",
            "notNull": false
          },
          {
            "fieldPath": "race",
            "columnName": "race",
            "affinity": "TEXT",
            "notNull": false
          },
          {
            "fieldPath": "objective",
            "columnName": "objective",
            "affinity": "TEXT",
            "notNull": false
          },
          {
            "fieldPath": "eliminated",
            "columnName": "eliminated",
            "affinity": "INTEGER",
            "notNull": true,
            "defaultValue": "false"
          }
        ],
        "primaryKey": {
          "columnNames": [
            "id",
            "gameId"
          ],
          "autoGenerate": false
        },
        "indices": [],
        "foreignKeys": []
      },
      {
        "tableName": "ResourceEntity",
        "createSql": "CREATE TABLE IF NOT EXISTS `${TABLE_NAME}` (`playerOwnerId` INTEGER NOT NULL, `gameId` INTEGER NOT NULL, `resource` TEXT NOT NULL, `actualQuantity` INTEGER NOT NULL, `maxQuantity` INTEGER NOT NULL, PRIMARY KEY(`playerOwnerId`, `gameId`, `resource`))",
        "fields": [
          {
            "fieldPath": "playerOwnerId",
            "columnName": "playerOwnerId",
            "affinity": "INTEGER",
            "notNull": true
          },
          {
            "fieldPath": "gameId",
            "columnName": "gameId",
            "affinity": "INTEGER",
            "notNull": true
          },
          {
            "fieldPath": "resource",
            "columnName": "resource",
            "affinity": "TEXT",
            "notNull": true
          },
          {
            "fieldPath": "actualQuantity",
            "columnName": "actualQuantity",
            "affinity": "INTEGER",
            "notNull": true
          },
          {
            "fieldPath": "maxQuantity",
            "columnName": "maxQuantity",
            "affinity": "INTEGER",
            "notNull": true
          }
        ],
        "primaryKey": {
          "columnNames": [
            "playerOwnerId",
            "gameId",
            "resource"
          ],
          "autoGenerate": false
        },
        "indices": [],
        "foreignKeys": []
      },
      {
        "tableName": "SkillTreeAttributeEntity",
        "createSql": "CREATE TABLE IF NOT EXISTS `${TABLE_NAME}` (`playerOwnerId` INTEGER NOT NULL, `gameId` INTEGER NOT NULL, `className` TEXT NOT NULL, `currentLevel` INTEGER NOT NULL, PRIMARY KEY(`playerOwnerId`, `gameId`, `className`))",
        "fields": [
          {
            "fieldPath": "playerOwnerId",
            "columnName": "playerOwnerId",
            "affinity": "INTEGER",
            "notNull": true
          },
          {
            "fieldPath": "gameId",
            "columnName": "gameId",
            "affinity": "INTEGER",
            "notNull": true
          },
          {
            "fieldPath": "className",
            "columnName": "className",
            "affinity": "TEXT",
            "notNull": true
          },
          {
            "fieldPath": "currentLevel",
            "columnName": "currentLevel",
            "affinity": "INTEGER",
            "notNull": true
          }
        ],
        "primaryKey": {
          "columnNames": [
            "playerOwnerId",
            "gameId",
            "className"
          ],
          "autoGenerate": false
        },
        "indices": [],
        "foreignKeys": []
      },
      {
        "tableName": "StructureEntity",
        "createSql": "CREATE TABLE IF NOT EXISTS `${TABLE_NAME}` (`gameId` INTEGER NOT NULL, `x` INTEGER NOT NULL, `y` INTEGER NOT NULL, `className` TEXT, `produced` INTEGER NOT NULL DEFAULT -1, `remaining` INTEGER NOT NULL DEFAULT -1, `ownerPlayerId` INTEGER NOT NULL DEFAULT -1, `conquerorPlayerId` INTEGER NOT NULL DEFAULT -1, PRIMARY KEY(`gameId`, `x`, `y`))",
        "fields": [
          {
            "fieldPath": "gameId",
            "columnName": "gameId",
            "affinity": "INTEGER",
            "notNull": true
          },
          {
            "fieldPath": "x",
            "columnName": "x",
            "affinity": "INTEGER",
            "notNull": true
          },
          {
            "fieldPath": "y",
            "columnName": "y",
            "affinity": "INTEGER",
            "notNull": true
          },
          {
            "fieldPath": "className",
            "columnName": "className",
            "affinity": "TEXT",
            "notNull": false
          },
          {
            "fieldPath": "produced",
            "columnName": "produced",
            "affinity": "INTEGER",
            "notNull": true,
            "defaultValue": "-1"
          },
          {
            "fieldPath": "remaining",
            "columnName": "remaining",
            "affinity": "INTEGER",
            "notNull": true,
            "defaultValue": "-1"
          },
          {
            "fieldPath": "ownerPlayerId",
            "columnName": "ownerPlayerId",
            "affinity": "INTEGER",
            "notNull": true,
            "defaultValue": "-1"
          },
          {
            "fieldPath": "conquerorPlayerId",
            "columnName": "conquerorPlayerId",
            "affinity": "INTEGER",
            "notNull": true,
            "defaultValue": "-1"
          }
        ],
        "primaryKey": {
          "columnNames": [
            "gameId",
            "x",
            "y"
          ],
          "autoGenerate": false
        },
        "indices": [],
        "foreignKeys": []
      },
      {
        "tableName": "UnitEntity",
        "createSql": "CREATE TABLE IF NOT EXISTS `${TABLE_NAME}` (`gameId` INTEGER NOT NULL, `x` INTEGER NOT NULL, `y` INTEGER NOT NULL, `isVehicle` INTEGER NOT NULL, `ownerPlayerId` INTEGER NOT NULL DEFAULT -1, `className` TEXT, `hp` INTEGER NOT NULL, `attackCount` INTEGER NOT NULL, `didFirstMovement` INTEGER NOT NULL, `movedAfterAttack` INTEGER NOT NULL, PRIMARY KEY(`gameId`, `x`, `y`, `isVehicle`))",
        "fields": [
          {
            "fieldPath": "gameId",
            "columnName": "gameId",
            "affinity": "INTEGER",
            "notNull": true
          },
          {
            "fieldPath": "x",
            "columnName": "x",
            "affinity": "INTEGER",
            "notNull": true
          },
          {
            "fieldPath": "y",
            "columnName": "y",
            "affinity": "INTEGER",
            "notNull": true
          },
          {
            "fieldPath": "isVehicle",
            "columnName": "isVehicle",
            "affinity": "INTEGER",
            "notNull": true
          },
          {
            "fieldPath": "ownerPlayerId",
            "columnName": "ownerPlayerId",
            "affinity": "INTEGER",
            "notNull": true,
            "defaultValue": "-1"
          },
          {
            "fieldPath": "className",
            "columnName": "className",
            "affinity": "TEXT",
            "notNull": false
          },
          {
            "fieldPath": "hp",
            "columnName": "hp",
            "affinity": "INTEGER",
            "notNull": true
          },
          {
            "fieldPath": "attackCount",
            "columnName": "attackCount",
            "affinity": "INTEGER",
            "notNull": true
          },
          {
            "fieldPath": "didFirstMovement",
            "columnName": "didFirstMovement",
            "affinity": "INTEGER",
            "notNull": true
          },
          {
            "fieldPath": "movedAfterAttack",
            "columnName": "movedAfterAttack",
            "affinity": "INTEGER",
            "notNull": true
          }
        ],
        "primaryKey": {
          "columnNames": [
            "gameId",
            "x",
            "y",
            "isVehicle"
          ],
          "autoGenerate": false
        },
        "indices": [],
        "foreignKeys": []
      },
      {
        "tableName": "AccountEntity",
        "createSql": "CREATE TABLE IF NOT EXISTS `${TABLE_NAME}` (`username` TEXT NOT NULL, `password` TEXT, PRIMARY KEY(`username`))",
        "fields": [
          {
            "fieldPath": "username",
            "columnName": "username",
            "affinity": "TEXT",
            "notNull": true
          },
          {
            "fieldPath": "password",
            "columnName": "password",
            "affinity": "TEXT",
            "notNull": false
          }
        ],
        "primaryKey": {
          "columnNames": [
            "username"
          ],
          "autoGenerate": false
        },
        "indices": [],
        "foreignKeys": []
      }
    ],
    "views": [],
    "setupQueries": [
      "CREATE TABLE IF NOT EXISTS room_master_table (id INTEGER PRIMARY KEY,identity_hash TEXT)",
      "INSERT OR REPLACE INTO room_master_table (id,identity_hash) VALUES(42, 'c66d93f6a1f6207e14cd9e8b25ddfdbf')"
    ]
  }
}